A Handbook on R
…
# If the package is not yet installed, you can install it by passing 
# a string with the package name to the `install.packages` function
install.packages(pkgs = c('COVID19'))

1.3.2 Available Packages on CRAN

For a full list of what packages are available through the install.packages function, please check out the Contributed Packages page at CRAN or scrape it yourself.

library(rvest)
cran_packages <- 'https://cran.r-project.org/web/packages/available_packages_by_date.html'
package_data <- html_table(html_element(read_html(cran_packages), 'table'))
print(package_data)

## # A tibble: 18,500 x 3
##    Date       Package         Title                                             
##    <chr>      <chr>           <chr>                                             
##  1 2021-11-25 aMNLFA          Automated Moderated Nonlinear Factor Analysis Usi~
##  2 2021-11-25 audio           Audio Interface for R                             
##  3 2021-11-25 boot.pval       Bootstrap p-Values                                
##  4 2021-11-25 bootUR          Bootstrap Unit Root Tests                         
##  5 2021-11-25 CALIBERrfimpute Multiple Imputation Using MICE and Random Forest  
##  6 2021-11-25 filearray       File-Backed Array for Out-of-Memory Computation   
##  7 2021-11-25 gamlss.foreach  Parallel Computations for Distributional Regressi~
##  8 2021-11-25 ggquiver        Quiver Plots for 'ggplot2'                        
##  9 2021-11-25 ICSKAT          Interval-Censored Sequence Kernel Association Test
## 10 2021-11-25 mapscanner      Print Maps, Draw on Them, Scan Them Back in       
## # ... with 18,490 more rows
…
