Chapter 2 Solve a Problem in R | A Handbook on R
…
# If the package is not yet installed, you can install it by passing 
# a string with the package name to the `install.packages` function
install.packages(pkgs = c('COVID19'))

2.0.2 Available Packages on CRAN

For a full list of what packages are available through the install.packages function, please check out the Contributed Packages page at CRAN or scrape it yourself.

library(rvest)
cran_packages <- 'https://cran.r-project.org/web/packages/available_packages_by_date.html'
package_data <- html_table(html_element(read_html(cran_packages), 'table'))
print(package_data)

## # A tibble: 18,469 x 3
##    Date       Package      Title                                                
##    <chr>      <chr>        <chr>                                                
##  1 2021-11-23 dataCompareR Compare Two Data Frames and Summarise the Difference 
##  2 2021-11-23 DescTools    Tools for Descriptive Statistics                     
##  3 2021-11-23 dietr        Diet Estimated Trophic Levels                        
##  4 2021-11-23 makepipe     Pipeline Tools Inspired by 'GNU Make'                
##  5 2021-11-23 skewMLRM     Estimation for Scale-Shape Mixtures of Skew-Normal D~
##  6 2021-11-23 symengine    Interface to the 'SymEngine' Library                 
##  7 2021-11-22 abtest       Bayesian A/B Testing                                 
##  8 2021-11-22 Bestie       Bayesian Estimation of Intervention Effects          
##  9 2021-11-22 brms         Bayesian Regression Models using 'Stan'              
## 10 2021-11-22 cgrcusum     Continuous Time Generalized Rapid Response CUSUM     
## # ... with 18,459 more rows
…
